My HW 5 Self-evaluation:
-----------------------
Correctness: 	 __/10
Design:          __/10
Style/Doc:   	 __/10
Bonus:            _/5
-----------------------
Total:			__/30
-----------------------
Hours spent:  
-----------------------
Justification:
