My HW 6 Self-evaluation:
-----------------------
Correctness: 	 __/10
Design:          __/10
Style/Doc:   	  _/5
GUI/Interface     _/5
Bonus:            _/5
-----------------------
Total:			__/30
-----------------------
Hours spent:  
-----------------------
Justification:
